module gitlab.com/thalesfaggiano/ge-clean-architecture

go 1.19

require (
	github.com/99designs/gqlgen v0.17.22
	github.com/go-chi/chi/v5 v5.0.8
	github.com/go-sql-driver/mysql v1.7.0
	github.com/google/wire v0.5.0
	github.com/mattn/go-sqlite3 v1.14.16
	github.com/spf13/viper v1.14.0
	github.com/streadway/amqp v1.0.0
	github.com/stretchr/testify v1.8.1
	github.com/vektah/gqlparser/v2 v2.5.1
	google.golang.org/grpc v1.50.1
	google.golang.org/protobuf v1.28.1
)

require (
	github.com/agnivade/levenshtein v1.1.1 // indirect
	github.com/cpuguy83/go-md2man/v2 v2.0.1 // indirect
	github.com/davecgh/go-spew v1.1.1 // indirect
	github.com/fsnotify/fsnotify v1.6.0 // indirect
	github.com/golang/protobuf v1.5.2 // indirect
	github.com/gorilla/websocket v1.5.0 // indirect
	github.com/hashicorp/golang-lru v0.5.4 // indirect
	github.com/hashicorp/hcl v1.0.0 // indirect
	github.com/magiconair/properties v1.8.6 // indirect
	github.com/mitchellh/mapstructure v1.5.0 // indirect
	github.com/pelletier/go-toml v1.9.5 // indirect
	github.com/pelletier/go-toml/v2 v2.0.5 // indirect
	github.com/pmezard/go-difflib v1.0.0 // indirect
	github.com/russross/blackfriday/v2 v2.1.0 // indirect
	github.com/spf13/afero v1.9.2 // indirect
	github.com/spf13/cast v1.5.0 // indirect
	github.com/spf13/jwalterweatherman v1.1.0 // indirect
	github.com/spf13/pflag v1.0.5 // indirect
	github.com/stretchr/objx v0.5.0 // indirect
	github.com/subosito/gotenv v1.4.1 // indirect
	github.com/urfave/cli/v2 v2.8.1 // indirect
	github.com/xrash/smetrics v0.0.0-20201216005158-039620a65673 // indirect
	golang.org/x/mod v0.6.0-dev.0.20220419223038-86c51ed26bb4 // indirect
	golang.org/x/net v0.0.0-20221014081412-f15817d10f9b // indirect
	golang.org/x/sys v0.0.0-20220908164124-27713097b956 // indirect
	golang.org/x/text v0.4.0 // indirect
	golang.org/x/tools v0.1.12 // indirect
	google.golang.org/genproto v0.0.0-20221024183307-1bc688fe9f3e // indirect
	gopkg.in/ini.v1 v1.67.0 // indirect
	gopkg.in/yaml.v2 v2.4.0 // indirect
	gopkg.in/yaml.v3 v3.0.1 // indirect
)
